Unnamed: 0,index,行业赛道,句子原文,研报ID,研报中位置
0,1,CXO,根据Fos&Sullia统计，全球2018年全球CRO行业市场规模达到578亿美元，同比增长10%，其中药物发现阶段市场规模115亿美元，临床前CRO市场规模84亿美元，临床CRO市场规模419亿美元，近年来按研发流程分类的三大细分领域市场规模占比基本保持稳定,5c3d72f74c9c1a1fcb0d8c87a03cbff8,380
1,2,CXO,根据Fos&Sullia统计，全球2018年全球CMO行业市场规模达到268亿美元，同比增长12.6%，其中小分子药物CMO市场规模204亿美元，生物制剂CMO市场规模64亿美元,5c3d72f74c9c1a1fcb0d8c87a03cbff8,383
2,3,CXO,未来随着生物药研发热度提升，生物制剂在全球药物市场中占比提高，生物制剂CMO市场将保持较高增速，带动CMO行业规模增速进一步提升，预计到2023年全球CMO市场规模将达到519亿美元，2018~2023年CAGR达到14.13%，生物药CMO占比从24%提升到35%,5c3d72f74c9c1a1fcb0d8c87a03cbff8,384
3,17,创新药,全球创新药市场规模由2014年的7383亿美元增长至2018年的8487亿美元，年均复合增速约为3.5%，预计到2023年有望增长至10345亿美元，预计2018-2023年均复合增速约为4%,7579f35d2e23344ec8a89dd2daa529a0,53
4,18,仿制药,全球仿制药市场规模由2014年的3041亿美元增长至2018年4188亿美元，年均复合增速约请务必阅读末页声明,7579f35d2e23344ec8a89dd2daa529a0,54
5,19,创新药,中国创新药市场规模由2014年的1065亿美元增长至2018年1286亿美元，年均复合增速约为4.8%,7579f35d2e23344ec8a89dd2daa529a0,57
6,20,CXO,根据弗若斯特沙利文数据，全球CRO市场规模由2014年的401亿美元增长至2018年的579亿美元，2014年-2018年均复合增速为9.7%,7579f35d2e23344ec8a89dd2daa529a0,70
7,21,CXO,根据弗若斯特沙利文数据，我国CRO市场规模由2014年的21亿美元增长至2018年的59亿美元，2014年-2018年均复合增速为29.2%,7579f35d2e23344ec8a89dd2daa529a0,77
8,22,原料药,2020年全球原料药市场规模将预计达到1864亿美元，同比增长6.1%，特色原料药增速预计在6%-10%,f51086acab03f0f48540943b7c5334fe,1
9,24,CXO,而GadViewReseach发布的最新研究报告称，2018年全球ECMO市场规模为267.6百万美元，并以4.4％的复合年增长率增长，到2026年市场规模预计将达到377.8百万美元,55d7ffd427e4c3af970e1105a0aaccda,178
10,25,仿制药,据TedFoce预估，2019年全球仿制药市场规模可达约4099亿美元，同比增速11.9%，2015～2019年复合增长率约为8.7%,7781cf944c7e5d2ec935afb9c26a65e4,138
11,26,仿制药,2016年全球仿制药市场规模达到2200亿美元，美国是全球最大的仿制药消费国，2016年美国市场仿制药销售总额约为800亿美元,66b74ee0b97b60a23b02914f0bcf296f,83
12,35,仿制药,根据IMARCGoup，2018年全球仿制药市场规模约3400亿美元，预计2024年达到4750亿美元，CAGR为5.3%,f1e5af7ae911f785f680335e6081638f,33
13,37,仿制药,IMARCGoup显示，2018年全球仿制药市场规模约3400亿美元，预计2024年达到4750亿美元，CAGR为5.3%,f1e5af7ae911f785f680335e6081638f,118
14,38,原料药,根据MakesadMakes，2019年全球原料药市场规模约1800亿美元，预计到2024年达到2450亿美元，CAGR为6.1%,f1e5af7ae911f785f680335e6081638f,119
15,39,CXO,2016年，全球CDMO行业规模约563亿美元，2012-2016年CAGR为12.06%，预计2021达到1025亿美元，2017-2021年CAGR为12.73%,f1e5af7ae911f785f680335e6081638f,128
16,41,原料药,2017年，全球原料药市场规模达到1550亿美元，比2016年同期增长6.16%，2018年，全球原料药行业市场规模达到1657亿美元,d7e101207923cb9795fcd967a195c01a,64
17,42,原料药,预计到2024年，全球原料药市场规模将上升到2367亿美元，年复合增长率将超过6.1%，其复合增长率略高于下游制剂领域,d7e101207923cb9795fcd967a195c01a,65
0,1,药店,美国零售药房行业整合期间，优质标的持续享受高估值✓根据美国国家统计局的数据，美国零售药房市场规模从1996年的918.10亿美元增长至2018年的2858.70亿美元，行业增速从1996年的6.95%下降至2018年的2.68%，行业增速放缓和竞争加剧引发行业整合,7210af202720963fa19e26492bd5453d,0
0,0,疫苗,2017年全球疫苗市场规模438亿美元，2013-2017年CAGR8.7%，预计到2030年时规模可达992亿美元,d0a22a22e7b9c527cdefe50cbd7dad3f,7
1,13,血制品,根据MRB数据，2016年全球血制品市场规模为335亿美元，预计2021年市场规模有望达到426亿美元，2016-2021年复合增速为5%，整体行业趋于稳定,2e53bb6c03b2379da26fe3e17579d5f3,22
2,20,血制品,根据MRB统计，2016年全球血制品市场规模212亿美元（不含重组产品），合并重组➢凝血因子约75亿美元销售额，全球血制品（含重组）市场约287亿美元,fbdc0f13c92da6b7016c35f1031ed1a4,49
3,28,疫苗,全球疫苗市场产值近年来稳步增长，据EaluaePhama估计，2018年全球疫苗市场规模约为305亿美元，2024年预计将增长至448亿美元,b3f2b12595b553789b378f8372558934,45
4,30,疫苗,根据《EaluaePhamaWoldPeiew2019》披露，2018年全球疫苗市场规模约305亿美元，在所有治疗领域中位列第四位，市场份额约3.5%,156756af73d134597efad5538b2381d9,6
5,31,疫苗,据EaluaePhama预测，2024年全球疫苗市场规模将达到448亿美元，年复合增长率约6.6%，未来增长潜力较大,156756af73d134597efad5538b2381d9,7
6,32,疫苗,根据《EaluaePhamaWoldPeiew2019》披露，2018年全球疫苗市场规模约305亿美元，在所有治疗领域中位列第四位，市场份额约3.5%,156756af73d134597efad5538b2381d9,69
7,33,疫苗,据EaluaePhama预测，2024年全球疫苗市场规模将达到448亿美元，年复合增长率约6.6%，增长潜力较大,156756af73d134597efad5538b2381d9,71
8,34,疫苗,•新兴疫苗发展迅速，疫苗适应症从传染病慢慢扩展到肿瘤等非传染病，根据EaluaePhama预测，到2022年，全球疫苗市场规模将达到353亿美元,c4c1a20e2f51e089880691ef4a5d34cb,58
0,4,云计算应用,从全球来看，据Gae预测，全球公有云市场规模预计从2017年的1452亿美元增长至2021年的2782亿美元,7deb91a1d5b968238982c2a77c8e4cd9,47
1,5,云计算应用,据IDC最新数据显示，截至2017年中国公有云市场规模达到40亿美元，并将持续保持30%以上的高增长率,7deb91a1d5b968238982c2a77c8e4cd9,52
2,6,云计算应用,预计到2020年，中国公有云市场将增长到约223亿美元，年复合增长率为41%,7deb91a1d5b968238982c2a77c8e4cd9,53
3,9,云计算应用,Gae数据显示，2018年全球云计算行业规模已经达到1363亿美元，2016-2018年间的CAGR高达24.9%，预计2019-2022年CAGR仍将达到19%，产业持续蓬勃,ea45f6dce0b3495fed98e4af236c7957,14
4,13,半导体,"根据世界半导体贸易统计协会（WSTS）统计，2018年全球集成电路市场规模为3,933亿美元，同比增长14.60%，全球存储芯片市场规模为1,580亿美元，同比增长27.42%，远高于集成电路行业整体增速",2b1dc259afca8e578943f24008e196d9,86
5,16,云计算应用,根据中国信通院数据，2018年我国云计算市场规模达到907亿人民币，预计到2021年云计算市场规模将达到1858亿人民币，增长率将保持在30%左右,41079ca360fe02d5eef00f180aac576e,54
6,31,半导体,根据WSTS2019年11月估计数据，2019年全球半导体行业的整体规模在4000亿美元以上，存储器的市场规模超过1000亿，是半导体中规模最大的子行业，占比超过14,059303a1c2dbecd08e5ceffb22d364e7,14
7,42,云计算应用,根据前瞻研究院数据，2018年，全球公有云市场规模已达到1312亿美元，增速为25.31%，预计未来几年市场平均增长率在20%左右，到2022年市场规模将超过2600亿美元,69308e4b4de36c230ed39270227c20e6,142
8,43,云计算应用,据智研咨询数据，2018年中国公有云市场规模约437亿人民币，增速达到65%,69308e4b4de36c230ed39270227c20e6,143
9,44,云计算应用,据估计，2018年中国整个云计算市场规模约1000亿人民币,69308e4b4de36c230ed39270227c20e6,144
10,71,云计算应用,据中国信通院的《云计算发展白皮书2019》，截至2018年，全球公有云市场规模1363亿美元，至2022年预计达到2733亿美元，四年CAGR约为19%,03fc6833ee509a83ae6005a67d7bd440,310
11,72,云计算应用,Gae预测，到2020年，全球云计算市场的规模将达到4114亿美元,03fc6833ee509a83ae6005a67d7bd440,311
12,75,半导体,WSTS数据显示，2018年全球半导体存储市场规模超过1500亿美元，同比增长26.4%,03fc6833ee509a83ae6005a67d7bd440,403
0,15,半导体,根据IHS数据，2018年全球功率半导体市场规模约为391亿美元,3e792edfeee0379f53f5ef6c9c25ed08,2
1,16,半导体,根据IHSMaki数据，2018年全球功率半导体市场规模约为391亿美元，预计至2021年市场规模将增长至441亿美元，年化增速为4.1%,3e792edfeee0379f53f5ef6c9c25ed08,43
0,4,云计算应用,根据知名市场研究公司Gae发布的最新报告，公共云计算市场将继续呈现出高速发展态势，并一直持续，2017年全球云计算市场规模达2602亿美元，同比增长18.5%；中国云计算市场规模达到720.6亿美元，同比增长55%，甚至这种强劲的发展势头使行业增速一直高于全球,869e25257706e8968f17de6cc0da7b4b,75
1,5,云计算应用,Gae数据显示，2018年全球云计算行业规模已经达到1363亿美元，2016-2018年间的CAGR高达24.9%，预计2019-2022年CAGR仍将达到19%,f4c3bd9447345167aba3e5b58757dc4b,57
2,7,云计算应用,根据Gae及中国信通院数据，2018年全球公有云市场规模约1363亿美元，中国公有云市场规模约437亿元,f4c3bd9447345167aba3e5b58757dc4b,102
3,14,游戏,2019129伽马数据发布《2019美国移动游戏市场及用户行为调查报告》，2020年美国移动游戏市场规模预计达133.7亿美元，将保持较高增速发展；2019美国移动游戏市场中本土产品占37%，中国产品第二占23%，且增长明显；SLG类游戏中，中国出海产品流水占比高于美国本土,820e8b110fec7565a3651d6e0dbce750,152
4,20,游戏,根据NikoPaes调研，2018年我国主机游戏市场实际销售收入为7.36亿美元，其中硬件设备带来的销售收入2.65亿美元，折合人民币约18亿元,d931b6a88ae9434ded41d094bbc9e451,74
5,25,游戏,20191225据Newzoo，2019年全球游戏市场总规模为1488亿美元，同比增幅7.2%，其中，手游市场占比46%，年收入682亿美元,5a33c908cc0ed2ef3f09a93446bcc862,149
6,31,游戏,据游戏工委发布的《2019年度中国游戏产业报告》显示，2019年中国游戏产业实际销售收入达2308.8亿元人民币，同比增长7.7%,00d180b4c8ea8998997c00fa7b059bcd,38
7,38,云计算应用,2018年全球公有云市场规模达到1363亿美元，增速为23%，预计未来几年市场仍能保持20%左右的增速,58c8d1273571c0cb6b3fd3e657ac38db,7
8,40,云计算应用,根据Gae数据，2018年全球公有云市场规模达到1363亿美元，增速为23%,58c8d1273571c0cb6b3fd3e657ac38db,26
9,43,大数据中心,2017年全球IDC规模达到534.7亿美元，相较于2016年增长18.32%,58c8d1273571c0cb6b3fd3e657ac38db,72
10,56,云计算应用,Gae数据显示，2018年全球云计算行业规模已经达到1363亿美元，2016-2018年间的CAGR高达24.9%，预计2019-2022年CAGR仍将达到19%，产业持续蓬勃,ea45f6dce0b3495fed98e4af236c7957,14
11,60,游戏,投资建议：根据Supedaa的最新数据报告，2019年全球游戏市场总体收入达1200亿美元，同比增长4%；其中数字游戏收入为1094亿美元，同比增长3%，增速略低于国内市场表现,7e7dd7a18417df7a359413642b0170ae,11
12,61,游戏,（21世纪经济报道）五、投资建议根据Supedaa的最新数据报告，2019年全球游戏市场总体收入达1200亿美元，同比增长4%；其中数字游戏收入为1094亿美元，同比增长3%，增速略低于国内市场表现,7e7dd7a18417df7a359413642b0170ae,44
13,94,云计算应用,依据信通院云计算白皮书，2018年全球云计算市场规模达到1363亿美元，增速为23.01%,4a5851ad147d0766a168d47779d8447e,36
14,96,云计算应用,中国2018年云计算总体市场规模约在1000亿人民币，其中公有云市场规模约437亿元人民币，增速高达65%，远超全球市场,0ec124fdc1e995934c32b5dd54980844,13
15,124,车联网,据前瞻产业研究院报告，2017年中国车联网市场规模为114亿美元，未来有望保持36.0%的年复合增速，到2022年达到520亿美元,4962be8febe13c2fdc705b44351d1fc1,5
16,125,车联网,更甚者，埃森哲预测2025年中国车联网的市场规模有望达到2162美元，占全球市场的四分之一以上,4962be8febe13c2fdc705b44351d1fc1,6
17,140,云计算应用,IDC指出，2020年将有超过50%的数据需要在网络边缘侧分析、处理与存储；到2021年，全球云计算市场的规模将达到5650亿美元，其中边缘云占比将达到约20%,c77f65a851c5c4ae93e930bb7252d152,198
18,148,云计算应用,根据IDC数据，2018年全球公有云市场规模已经突破1363亿美元，2014年至2018年五年时间，全球公有云市场规模增长了2倍,f2e582916acc34fc5e15e22f43f4cc4e,72
19,173,游戏,数据分析公司Saisa统计称，2019年，全球云游戏市场规模约为9700万美元，到2023年将增长至4.5亿美元，3月5日外媒消息，互联网巨头谷歌已经开始向三星、华硕和Raze手机推出流媒体服务，并计划发布于Sadia云游戏平台发布4K游戏,a250cb318865df1e5548974c3e5fa445,27
20,185,云计算应用,近日，Fos&Sullia发布中国公有云市场的调查研究报告，报告结果显示，2019年中国公有云Q3市场达到197.1亿元人民币，同比增长64.3%,3181302970ad829525c338b2b02e6dae,140
21,194,大数据中心,根据信通院2019年发布的《数据中心白皮书》预测，2019年全球IDC市场规模将达560亿美元以上，同比增长10.5%,894b838330bc53e431fcf152b4180fcc,152
22,209,车联网,根据Machia、IMS和华为联合调研，2017年，全球车联网市场规模达342亿欧元，预计到2020年，该市场规模有望达到400亿欧元，年均复合增速约25%,77fea9df9457d79aea310e6c9f48bf90,33
0,0,体外诊断,根据Fos&Sullia数据，预计到2019年，中国IVD市场规模可达103.68亿美元，同期全球IVD市场规模约为769.40亿美元,60ad5edf89b0ac5407e6bbec15c5c08a,34
0,4,云计算应用,根据信通院数据，2018年我国云计算市场规模约为907亿元人民币，其中公有云市场规模约为382亿占比42%，过往三年平均增速高于全球5个点,92cf0aba2c260075e17d30820004a2d2,84
1,5,云计算应用,预计未来至2021年中国云计算市场规模达1858亿元人民币，平均增速仍接近30%,92cf0aba2c260075e17d30820004a2d2,85
2,9,工业互联网,目前全球工业互联网市场规模保持高速增长，根据前瞻产业研究院数据显示，2018年全球工业互联网市场规模达到696.24亿美元，同比增长33.22%，预计到2021年市场规模将增长至1643.64亿美元，工业互联网市场方兴未艾,2c08b7aca226dad2b8da7a461b5dbb21,37
3,12,云计算应用,根据Gae报告，2017年全球云计算市场达到2602亿美元,f6f547fdcb678119ca8ca4a918f6a972,11
4,14,人工智能,➢据Saisa预计，2016年全球人工智能市场规模6.4亿美元，到2025年市场规模将达到369亿美元，年均复合增速达57%，据艾瑞➢咨询统计，2015年国内人工智能市场为12亿元，到2020市场规模将达到91亿元，年复合增长率约50%,7441f95a7ad38a25bc1fd3c19934a681,50
5,20,云计算应用,随着底层技术的成熟和商业模式的完善，云计算行业快速发展，根据前瞻产业研究院数据，2018年全球云服务市场规模达到3058亿美元，同比增长17%，预计到2022年市场规模将达到5488亿美元,b77346bb9e620e2264cce50640bae240,77
6,21,半导体,根据SEMI预测，2020年全球半导体市场规模为587.9亿美元，同比增长11.6%，中国（大陆）2020年半导体投资有望大幅增长至145.0亿美元，同比增长24.0%，占世界投入总额的24.7%，首居第一位,a84f954bae86447ef85923d9a1292496,26
7,32,半导体,7.2019年全球基带芯片市场收益209亿美元高通以41%的份额领先SaegyAalyics手机元件技术研究服务最新发布的研究报告《2019年Q4基带市场份额追踪：5G基带芯片捕获两位数的收益份额》指出，2019年全球蜂窝基带处理器市场收益同比下降3％，为209亿美元,8fc674d171c7da1795316e2b67baf265,79
8,36,云计算应用,据信通院数据显示，2018年全球云计算市场规模为1363亿美元，同比增长23.01%，增速相较2017年回落了3.76个百分点，预计2022年市场规模将达2733亿美元,a14d98023413bc7f9fa1d91924506665,149
9,63,人工智能,据中国产业信息网和中国信息通信研究院数据，世界人工智能市场将在2020年达到6800亿元人民币，复合增长率达26.2%，而中国人工智能市场也将在2020年达到710亿元人民币，复合增长率达44.5%,784b42954524b6817fc9c2e32412c280,4
10,64,人工智能,市场调研机构预测，到2022年，中国人工智能市场规模将达到98．4亿美元；到2025年，全球人工智能市场规模或将超过6万亿美元,7e89914c1dfed239353a1a68a42af0f8,53
11,71,半导体,根据SEMI预测，2020年全球半导体市场规模为587.9亿美元，3%同比增长11.6%,b430d1a4545fcf14d3108f4477a7980f,11
12,74,大数据中心,据中国信通院数据，2018年全球IDC市场规模约514亿美元，预计2020年达到627亿美元，年复合增长率约10%；2018年我国IDC市场规模约为858亿元，预计2020年达到1494亿元，年复合增长率超过30%，显著高于全球市场增速,637ddd128a6c58a022c543f62d405d19,61
13,89,大数据中心,2018年，中国IDC市场总规模为1277.2亿人民币，同比增长35%,79a21a1775bec5fbd6a788b3d184e0fa,293
14,95,大数据中心,根据信通院2019年发布的《数据中心白皮书》预测，2019年全球IDC市场规模将达560亿美元以上，同比增长10.5%,894b838330bc53e431fcf152b4180fcc,152
15,105,大数据中心,全球IDC市场规模从2013年的284亿美元增长至2017年的521亿美元，2017年同比增速达18.3%,f4b57189ac452e6dacca08096d31adce,68
16,107,云计算应用,根据智研咨询预测，2019年全球云计算整体市场规模将达3556亿美元，同比增长16.29%,f4b57189ac452e6dacca08096d31adce,96
17,108,云计算应用,据Gae统计，全球云计算服务市场保持稳定增长态势，2018年全球公有云服务市场规模达1363亿美元，增速23%，预计2022年市场规模将超过2700亿美元,821018b5271e642514e5fa35684508db,86
18,112,人工智能,2019年全球人工智能市场规模达375亿美元，中国人工智能市场预计占全球的12%，成为全球人工智能市场的第二级,fb72490a862f212d46ba59b69e7d93e8,112
19,113,人工智能,IDC预计，2020年中国人工智能市场将达到42.5亿美元，同比增长51.5%，到2023年，人工智能市场规模将达到119亿美元，2018-2023年复合增长率达46.6%,fb72490a862f212d46ba59b69e7d93e8,113
20,119,医疗信息化,埃森哲预测全球智慧医疗市场规模将在2020年达到1630亿美元,53f3c2ac134668ba72d6a7379324ce27,260
21,121,云计算应用,全球市场：据Gae统计，2018年全球公有云市场规模达到1824亿美元，预计2019年达到2143亿美元，同比增长17.5%,53f3c2ac134668ba72d6a7379324ce27,315
22,127,云计算应用,"2017年全球云计算规模为2,602亿美元，预计到2020年将达到4,114亿美元，CAGR为16.5%",a74b774c31392c3b570a9d9c5e1e2148,212
23,149,半导体,根据SEMI预测，2020年全球半导体市场规模为587.9亿美元，同Table_Cha行业表现比增长11.6%,8ca2943a7b5d93e2479aa44c0cef66ea,11
24,160,车联网,根据Machia、IMS和华为联合调研，2017年，全球车联网市场规模达342亿欧元，预计到2020年，该市场规模有望达到400亿欧元，年均复合增速约25%,77fea9df9457d79aea310e6c9f48bf90,33
25,191,大数据中心,截至2017年底，全球IDC市场规模达534.70亿美元，较上年同比增长18.32%,1ba9fbdebc89347072868a41a5ff5cac,70
26,193,云计算应用,IDC预计2023年中国工业云市场规模预计达到42.4亿美元,1ba9fbdebc89347072868a41a5ff5cac,243
0,4,工业互联网,6、2019-2024年全球工业4.0市场规模将达1566亿美元,9458684a78a33b6bd478bf84022ad7a7,157
1,8,半导体,根据国外机构预测2015年中国半导体市场需求约为7000亿美元，按照50%折算中国需要自产3500亿美元的产品，相比于2018年替代空间几乎达到了10倍,583e1fd4d851415602ffae55034afddf,3
2,9,半导体,2018年全球半导体市场规模约为4373亿美元，中国半导体市场规模约为1220亿美元，中国已经成为全球最大的半导体消费市场,3a8f15aafead7acc0bd8481443d6dd44,37
3,15,大数据中心,截至2017年底，全球IDC市场规模达534.70亿美元，较上年同比增长18.32%,9074c09da9a08aa96fd3462753f7cab9,71
4,18,半导体,根据美国半导体行业协会（SIA）数据，2019年全球半导体行业营收为4121亿美元，与2018年相比大跌12.1%，这是自2001年以来的最大降幅,68df7b25ae81017df246ab2a3970fb39,23
5,20,半导体,根据IHS数据，2018年全球功率半导体市场规模约为391亿美元,3e792edfeee0379f53f5ef6c9c25ed08,2
6,21,半导体,根据IHSMaki数据，2018年全球功率半导体市场规模约为391亿美元，预计至2021年市场规模将增长至441亿美元，年化增速为4.1%,3e792edfeee0379f53f5ef6c9c25ed08,43
7,26,人工智能,2019年全球AIoT市场规模为51亿美元，到2024年，这一数字将增长至162亿美元，复合年增长率为26.0%,966872e23333ce7277f6b8fb899298ba,125
8,27,半导体,全球封测规模达560亿美元，我国封测市场快速增长❖2018年全球半导体封测市场达到560亿美元，同比增长5.10%,4da4417dba5b0de44081b7887f19af00,11
9,30,半导体,2月4日消息，据国外媒体报道，当地时间周一，美国半导体行业协会（SIA）宣布，2019年全球半导体行业营收为4121亿美元，与2018年相比大跌12.1%，这是自2001年以来的最大降幅,bf7a187647fd0b92c99f6e3d05dfca6c,56
10,32,半导体,根据WSTS统计数据，2018年全球半导体市场规模达到了4780亿美元，同比增长15.9%，其中存储器市场规模为1650亿美元，占比达到35%，是最大的半导体市场,aadd3e13eba024fc897860a3ae73bace,23
11,37,半导体,根据KPMG数据，2013-2019年全球汽车半导体市场从250亿美元增长至400亿美元，预计到2040年将达到1500-2000亿美元,01d2006652e02f4c202b49176aea993b,0
12,38,半导体,根据KPMG数据，2013-2019年全球汽车半导体市场从250亿美元增长至400亿美元，预计到2040年将达到1500-2000亿美元,01d2006652e02f4c202b49176aea993b,9
13,42,半导体,根据saegyAalyics数据，2018年全球车载半导体市场规模达到377亿美元，英飞凌、瑞萨半导体、意法半导体占据前列,9a3a4d6257a0226f572d7502e06f3d16,248
14,45,半导体,预计到2023年，全球模拟芯片市场规模可超800亿美元,20cda163dfb0c8f3d15ac0171ed9bc40,58
