,index,行业赛道,年份,行业规模,地区,币种,研报ID,时间戳,研报中位置,句子原文
0,1,CXO,2018年,57800000000.0,全球,美元,5c3d72f74c9c1a1fcb0d8c87a03cbff8,2020-07-16 15:47:11,380,根据Fos&Sullia统计，全球2018年全球CRO行业市场规模达到578亿美元，同比增长10%，其中药物发现阶段市场规模115亿美元，临床前CRO市场规模84亿美元，临床CRO市场规模419亿美元，近年来按研发流程分类的三大细分领域市场规模占比基本保持稳定
1,2,CXO,2018年,26800000000.0,全球,美元,5c3d72f74c9c1a1fcb0d8c87a03cbff8,2020-07-16 15:47:11,383,根据Fos&Sullia统计，全球2018年全球CMO行业市场规模达到268亿美元，同比增长12.6%，其中小分子药物CMO市场规模204亿美元，生物制剂CMO市场规模64亿美元
2,3,CXO,2023年,51900000000.0,全球,美元,5c3d72f74c9c1a1fcb0d8c87a03cbff8,2020-07-16 15:47:11,384,未来随着生物药研发热度提升，生物制剂在全球药物市场中占比提高，生物制剂CMO市场将保持较高增速，带动CMO行业规模增速进一步提升，预计到2023年全球CMO市场规模将达到519亿美元，2018~2023年CAGR达到14.13%，生物药CMO占比从24%提升到35%
3,17,创新药,2014年,738300000000.0,全球,美元,7579f35d2e23344ec8a89dd2daa529a0,2020-07-16 15:49:10,53,全球创新药市场规模由2014年的7383亿美元增长至2018年的8487亿美元，年均复合增速约为3.5%，预计到2023年有望增长至10345亿美元，预计2018-2023年均复合增速约为4%
4,18,仿制药,2014年,304100000000.0,全球,美元,7579f35d2e23344ec8a89dd2daa529a0,2020-07-16 15:49:10,54,全球仿制药市场规模由2014年的3041亿美元增长至2018年4188亿美元，年均复合增速约请务必阅读末页声明
5,19,创新药,2014年,106500000000.0,中国,美元,7579f35d2e23344ec8a89dd2daa529a0,2020-07-16 15:49:10,57,中国创新药市场规模由2014年的1065亿美元增长至2018年1286亿美元，年均复合增速约为4.8%
6,20,CXO,2014年,40100000000.0,全球,美元,7579f35d2e23344ec8a89dd2daa529a0,2020-07-16 15:49:10,70,根据弗若斯特沙利文数据，全球CRO市场规模由2014年的401亿美元增长至2018年的579亿美元，2014年-2018年均复合增速为9.7%
7,21,CXO,2014年,2100000000.0,我国,美元,7579f35d2e23344ec8a89dd2daa529a0,2020-07-16 15:49:10,77,根据弗若斯特沙利文数据，我国CRO市场规模由2014年的21亿美元增长至2018年的59亿美元，2014年-2018年均复合增速为29.2%
8,22,原料药,2020年,186400000000.0,全球,美元,f51086acab03f0f48540943b7c5334fe,2020-07-16 15:49:17,1,2020年全球原料药市场规模将预计达到1864亿美元，同比增长6.1%，特色原料药增速预计在6%-10%
9,24,CXO,2018年,186400000000.0,全球,美元,55d7ffd427e4c3af970e1105a0aaccda,2020-07-16 15:49:44,178,而GadViewReseach发布的最新研究报告称，2018年全球ECMO市场规模为267.6百万美元，并以4.4％的复合年增长率增长，到2026年市场规模预计将达到377.8百万美元
10,25,仿制药,2019年,409900000000.0,全球,美元,7781cf944c7e5d2ec935afb9c26a65e4,2020-07-16 15:50:23,138,据TedFoce预估，2019年全球仿制药市场规模可达约4099亿美元，同比增速11.9%，2015～2019年复合增长率约为8.7%
11,26,仿制药,2016年,220000000000.0,全球,美元,66b74ee0b97b60a23b02914f0bcf296f,2020-07-16 15:50:45,83,2016年全球仿制药市场规模达到2200亿美元，美国是全球最大的仿制药消费国，2016年美国市场仿制药销售总额约为800亿美元
12,35,仿制药,2018年,340000000000.0,全球,美元,f1e5af7ae911f785f680335e6081638f,2020-07-16 15:54:10,33,根据IMARCGoup，2018年全球仿制药市场规模约3400亿美元，预计2024年达到4750亿美元，CAGR为5.3%
13,37,仿制药,2018年,340000000000.0,全球,美元,f1e5af7ae911f785f680335e6081638f,2020-07-16 15:54:10,118,IMARCGoup显示，2018年全球仿制药市场规模约3400亿美元，预计2024年达到4750亿美元，CAGR为5.3%
14,38,原料药,2019年,180000000000.0,全球,美元,f1e5af7ae911f785f680335e6081638f,2020-07-16 15:54:10,119,根据MakesadMakes，2019年全球原料药市场规模约1800亿美元，预计到2024年达到2450亿美元，CAGR为6.1%
15,39,CXO,2016年,56300000000.0,全球,美元,f1e5af7ae911f785f680335e6081638f,2020-07-16 15:54:10,128,2016年，全球CDMO行业规模约563亿美元，2012-2016年CAGR为12.06%，预计2021达到1025亿美元，2017-2021年CAGR为12.73%
16,41,原料药,2018年,165700000000.0,全球,美元,d7e101207923cb9795fcd967a195c01a,2020-07-16 15:55:17,64,2017年，全球原料药市场规模达到1550亿美元，比2016年同期增长6.16%，2018年，全球原料药行业市场规模达到1657亿美元
17,42,原料药,2024年,236700000000.0,全球,美元,d7e101207923cb9795fcd967a195c01a,2020-07-16 15:55:17,65,预计到2024年，全球原料药市场规模将上升到2367亿美元，年复合增长率将超过6.1%，其复合增长率略高于下游制剂领域
