,index,行业赛道,年份,行业规模,地区,币种,研报ID,时间戳,研报中位置,句子原文
0,4,云计算应用,2017年,145200000000.0,全球,美元,7deb91a1d5b968238982c2a77c8e4cd9,2020-07-16 16:02:00,47,从全球来看，据Gae预测，全球公有云市场规模预计从2017年的1452亿美元增长至2021年的2782亿美元
1,5,云计算应用,2017年,4000000000.0,中国,美元,7deb91a1d5b968238982c2a77c8e4cd9,2020-07-16 16:02:00,52,据IDC最新数据显示，截至2017年中国公有云市场规模达到40亿美元，并将持续保持30%以上的高增长率
2,6,云计算应用,2020年,22300000000.0,中国,美元,7deb91a1d5b968238982c2a77c8e4cd9,2020-07-16 16:02:00,53,预计到2020年，中国公有云市场将增长到约223亿美元，年复合增长率为41%
3,9,云计算应用,2018年,136300000000.0,全球,美元,ea45f6dce0b3495fed98e4af236c7957,2020-07-16 16:02:21,14,Gae数据显示，2018年全球云计算行业规模已经达到1363亿美元，2016-2018年间的CAGR高达24.9%，预计2019-2022年CAGR仍将达到19%，产业持续蓬勃
4,13,半导体,2018年,"['3,933', '亿']",全球,美元,2b1dc259afca8e578943f24008e196d9,2020-07-16 16:02:30,86,"根据世界半导体贸易统计协会（WSTS）统计，2018年全球集成电路市场规模为3,933亿美元，同比增长14.60%，全球存储芯片市场规模为1,580亿美元，同比增长27.42%，远高于集成电路行业整体增速"
5,16,云计算应用,2018年,90700000000.0,我国,人民币,41079ca360fe02d5eef00f180aac576e,2020-07-16 16:04:06,54,根据中国信通院数据，2018年我国云计算市场规模达到907亿人民币，预计到2021年云计算市场规模将达到1858亿人民币，增长率将保持在30%左右
6,31,半导体,2019年,400000000000.0,全球,美元,059303a1c2dbecd08e5ceffb22d364e7,2020-07-16 16:08:20,14,根据WSTS2019年11月估计数据，2019年全球半导体行业的整体规模在4000亿美元以上，存储器的市场规模超过1000亿，是半导体中规模最大的子行业，占比超过14
7,42,云计算应用,2018年,131200000000.0,全球,美元,69308e4b4de36c230ed39270227c20e6,2020-07-16 16:09:37,142,根据前瞻研究院数据，2018年，全球公有云市场规模已达到1312亿美元，增速为25.31%，预计未来几年市场平均增长率在20%左右，到2022年市场规模将超过2600亿美元
8,43,云计算应用,2018年,43700000000.0,中国,人民币,69308e4b4de36c230ed39270227c20e6,2020-07-16 16:09:37,143,据智研咨询数据，2018年中国公有云市场规模约437亿人民币，增速达到65%
9,44,云计算应用,2018年,100000000000.0,中国,人民币,69308e4b4de36c230ed39270227c20e6,2020-07-16 16:09:37,144,据估计，2018年中国整个云计算市场规模约1000亿人民币
10,71,云计算应用,2018年,136300000000.0,全球,美元,03fc6833ee509a83ae6005a67d7bd440,2020-07-16 16:10:45,310,据中国信通院的《云计算发展白皮书2019》，截至2018年，全球公有云市场规模1363亿美元，至2022年预计达到2733亿美元，四年CAGR约为19%
11,72,云计算应用,2020年,411400000000.0,全球,美元,03fc6833ee509a83ae6005a67d7bd440,2020-07-16 16:10:45,311,Gae预测，到2020年，全球云计算市场的规模将达到4114亿美元
12,75,半导体,2018年,150000000000.0,全球,美元,03fc6833ee509a83ae6005a67d7bd440,2020-07-16 16:10:45,403,WSTS数据显示，2018年全球半导体存储市场规模超过1500亿美元，同比增长26.4%
