,index,行业赛道,年份,行业规模,地区,币种,研报ID,时间戳,研报中位置,句子原文
0,4,云计算应用,2018年,90700000000.0,我国,人民币,92cf0aba2c260075e17d30820004a2d2,2020-07-16 17:33:28,84,根据信通院数据，2018年我国云计算市场规模约为907亿元人民币，其中公有云市场规模约为382亿占比42%，过往三年平均增速高于全球5个点
1,5,云计算应用,2021年,185800000000.0,中国,人民币,92cf0aba2c260075e17d30820004a2d2,2020-07-16 17:33:28,85,预计未来至2021年中国云计算市场规模达1858亿元人民币，平均增速仍接近30%
2,9,工业互联网,2018年,69624000000.0,全球,美元,2c08b7aca226dad2b8da7a461b5dbb21,2020-07-16 17:36:59,37,目前全球工业互联网市场规模保持高速增长，根据前瞻产业研究院数据显示，2018年全球工业互联网市场规模达到696.24亿美元，同比增长33.22%，预计到2021年市场规模将增长至1643.64亿美元，工业互联网市场方兴未艾
3,12,云计算应用,2017年,260200000000.0,全球,美元,f6f547fdcb678119ca8ca4a918f6a972,2020-07-16 17:37:19,11,根据Gae报告，2017年全球云计算市场达到2602亿美元
4,14,人工智能,2015年,1200000000.0,全球,美元,7441f95a7ad38a25bc1fd3c19934a681,2020-07-16 17:37:26,50,➢据Saisa预计，2016年全球人工智能市场规模6.4亿美元，到2025年市场规模将达到369亿美元，年均复合增速达57%，据艾瑞➢咨询统计，2015年国内人工智能市场为12亿元，到2020市场规模将达到91亿元，年复合增长率约50%
5,20,云计算应用,2018年,305800000000.0,全球,美元,b77346bb9e620e2264cce50640bae240,2020-07-16 17:39:18,77,随着底层技术的成熟和商业模式的完善，云计算行业快速发展，根据前瞻产业研究院数据，2018年全球云服务市场规模达到3058亿美元，同比增长17%，预计到2022年市场规模将达到5488亿美元
6,21,半导体,2020年,58790000000.0,全球,美元,a84f954bae86447ef85923d9a1292496,2020-07-16 17:39:27,26,根据SEMI预测，2020年全球半导体市场规模为587.9亿美元，同比增长11.6%，中国（大陆）2020年半导体投资有望大幅增长至145.0亿美元，同比增长24.0%，占世界投入总额的24.7%，首居第一位
7,32,半导体,2019年,20900000000.0,全球,美元,8fc674d171c7da1795316e2b67baf265,2020-07-16 17:44:35,79,7.2019年全球基带芯片市场收益209亿美元高通以41%的份额领先SaegyAalyics手机元件技术研究服务最新发布的研究报告《2019年Q4基带市场份额追踪：5G基带芯片捕获两位数的收益份额》指出，2019年全球蜂窝基带处理器市场收益同比下降3％，为209亿美元
8,36,云计算应用,2018年,136300000000.0,全球,美元,a14d98023413bc7f9fa1d91924506665,2020-07-16 17:44:59,149,据信通院数据显示，2018年全球云计算市场规模为1363亿美元，同比增长23.01%，增速相较2017年回落了3.76个百分点，预计2022年市场规模将达2733亿美元
9,63,人工智能,2020年,71000000000.0,中国,人民币,784b42954524b6817fc9c2e32412c280,2020-07-16 17:49:37,4,据中国产业信息网和中国信息通信研究院数据，世界人工智能市场将在2020年达到6800亿元人民币，复合增长率达26.2%，而中国人工智能市场也将在2020年达到710亿元人民币，复合增长率达44.5%
10,64,人工智能,2025年,60000.0,全球,美元,7e89914c1dfed239353a1a68a42af0f8,2020-07-16 17:51:02,53,市场调研机构预测，到2022年，中国人工智能市场规模将达到98．4亿美元；到2025年，全球人工智能市场规模或将超过6万亿美元
11,71,半导体,2020年,58790000000.0,全球,美元,b430d1a4545fcf14d3108f4477a7980f,2020-07-16 17:53:03,11,根据SEMI预测，2020年全球半导体市场规模为587.9亿美元，3%同比增长11.6%
12,74,大数据中心,2018年,51400000000.0,我国,美元,637ddd128a6c58a022c543f62d405d19,2020-07-16 17:54:13,61,据中国信通院数据，2018年全球IDC市场规模约514亿美元，预计2020年达到627亿美元，年复合增长率约10%；2018年我国IDC市场规模约为858亿元，预计2020年达到1494亿元，年复合增长率超过30%，显著高于全球市场增速
13,89,大数据中心,2018年,127720000000.0,中国,人民币,79a21a1775bec5fbd6a788b3d184e0fa,2020-07-16 17:58:51,293,2018年，中国IDC市场总规模为1277.2亿人民币，同比增长35%
14,95,大数据中心,2019年,56000000000.0,全球,美元,894b838330bc53e431fcf152b4180fcc,2020-07-16 17:59:39,152,根据信通院2019年发布的《数据中心白皮书》预测，2019年全球IDC市场规模将达560亿美元以上，同比增长10.5%
15,105,大数据中心,2013年,28400000000.0,全球,美元,f4b57189ac452e6dacca08096d31adce,2020-07-16 18:01:44,68,全球IDC市场规模从2013年的284亿美元增长至2017年的521亿美元，2017年同比增速达18.3%
16,107,云计算应用,2019年,355600000000.0,全球,美元,f4b57189ac452e6dacca08096d31adce,2020-07-16 18:01:44,96,根据智研咨询预测，2019年全球云计算整体市场规模将达3556亿美元，同比增长16.29%
17,108,云计算应用,2018年,136300000000.0,全球,美元,821018b5271e642514e5fa35684508db,2020-07-16 18:01:47,86,据Gae统计，全球云计算服务市场保持稳定增长态势，2018年全球公有云服务市场规模达1363亿美元，增速23%，预计2022年市场规模将超过2700亿美元
18,112,人工智能,2019年,37500000000.0,全球,美元,fb72490a862f212d46ba59b69e7d93e8,2020-07-16 18:02:56,112,2019年全球人工智能市场规模达375亿美元，中国人工智能市场预计占全球的12%，成为全球人工智能市场的第二级
19,113,人工智能,2020年,4250000000.0,中国,美元,fb72490a862f212d46ba59b69e7d93e8,2020-07-16 18:02:56,113,IDC预计，2020年中国人工智能市场将达到42.5亿美元，同比增长51.5%，到2023年，人工智能市场规模将达到119亿美元，2018-2023年复合增长率达46.6%
20,119,医疗信息化,2020年,163000000000.0,全球,美元,53f3c2ac134668ba72d6a7379324ce27,2020-07-16 18:03:49,260,埃森哲预测全球智慧医疗市场规模将在2020年达到1630亿美元
21,121,云计算应用,2018年,182400000000.0,全球,美元,53f3c2ac134668ba72d6a7379324ce27,2020-07-16 18:03:49,315,全球市场：据Gae统计，2018年全球公有云市场规模达到1824亿美元，预计2019年达到2143亿美元，同比增长17.5%
22,127,云计算应用,2017年,"['2,602', '亿']",全球,美元,a74b774c31392c3b570a9d9c5e1e2148,2020-07-16 18:04:37,212,"2017年全球云计算规模为2,602亿美元，预计到2020年将达到4,114亿美元，CAGR为16.5%"
23,149,半导体,2020年,58790000000.0,全球,美元,8ca2943a7b5d93e2479aa44c0cef66ea,2020-07-16 18:09:08,11,根据SEMI预测，2020年全球半导体市场规模为587.9亿美元，同Table_Cha行业表现比增长11.6%
24,160,车联网,2017年,34200000000.0,全球,欧元,77fea9df9457d79aea310e6c9f48bf90,2020-07-16 18:11:30,33,根据Machia、IMS和华为联合调研，2017年，全球车联网市场规模达342亿欧元，预计到2020年，该市场规模有望达到400亿欧元，年均复合增速约25%
25,191,大数据中心,2017年,53470000000.00001,全球,美元,1ba9fbdebc89347072868a41a5ff5cac,2020-07-16 18:16:16,70,截至2017年底，全球IDC市场规模达534.70亿美元，较上年同比增长18.32%
26,193,云计算应用,2023年,4240000000.0,中国,美元,1ba9fbdebc89347072868a41a5ff5cac,2020-07-16 18:16:16,243,IDC预计2023年中国工业云市场规模预计达到42.4亿美元
